[
  {
    "tx": {
      "value": {
        "cmd": "deposit",
        "amount": 20
      },
      "hash": "0xc8d6e693d68a7b0b180cb0b2042e2dbf332c5ae797f240dcbb42ae959df51391"
    },
    "signature": "0x230cdff300f81f5256012ca3f374a08d860fd0a7f80a2aa4991d23cd23aaad805c97894b098274b0864eae28c2c3da379a09d730d8d3db9abd6f24941df460ab1c"
  },
  {
    "tx": {
      "value": {
        "cmd": "deposit",
        "amount": 20
      },
      "hash": "0x23d64e01ab9cb271ec31896e5c0094550c74c188eaf87e1bbbfe7abb81f6aba0"
    },
    "signature": "0x1db974cfbd9ce812936eeced45ba613e079025f5f9d064769917121a20920f651f047aef7d76bf8323675f06fbcb4fff0d268023ecd6de5556b98ffde69ecaf21c"
  },
  {
    "tx": {
      "value": {
        "cmd": "deposit",
        "amount": 20
      },
      "hash": "0x23d64e01ab9cb271ec31896e5c0094550c74c188eaf87e1bbbfe7abb81f6aba0"
    },
    "signature": "0x1db974cfbd9ce812936eeced45ba613e079025f5f9d064769917121a20920f651f047aef7d76bf8323675f06fbcb4fff0d268023ecd6de5556b98ffde69ecaf21c"
  }
]